test/fft_engine/wave/fft_engine_tb_20250808_12:02:16.vcd
$date
	Fri Aug  8 12:02:21 2025
$end
$version
	Icarus Verilog
$end
$timescale
	1ps
$end
$scope module fft_engine_tb $end
$var wire 1 ! clk $end
$var wire 8 " in0_imag [7:0] $end
$var wire 8 # in0_real [7:0] $end
$var wire 8 $ in1_imag [7:0] $end
$var wire 8 % in1_real [7:0] $end
$var wire 8 & in2_imag [7:0] $end
$var wire 8 ' in2_real [7:0] $end
$var wire 8 ( in3_imag [7:0] $end
$var wire 8 ) in3_real [7:0] $end
$var wire 1 * rst $end
$var wire 8 + out3_real [7:0] $end
$var wire 8 , out3_imag [7:0] $end
$var wire 8 - out2_real [7:0] $end
$var wire 8 . out2_imag [7:0] $end
$var wire 8 / out1_real [7:0] $end
$var wire 8 0 out1_imag [7:0] $end
$var wire 8 1 out0_real [7:0] $end
$var wire 8 2 out0_imag [7:0] $end
$var reg 8 3 current_test_id [7:0] $end
$scope module dut $end
$var wire 1 ! clk $end
$var wire 8 4 in0_imag [7:0] $end
$var wire 8 5 in0_real [7:0] $end
$var wire 8 6 in1_imag [7:0] $end
$var wire 8 7 in1_real [7:0] $end
$var wire 8 8 in2_imag [7:0] $end
$var wire 8 9 in2_real [7:0] $end
$var wire 8 : in3_imag [7:0] $end
$var wire 8 ; in3_real [7:0] $end
$var wire 1 * rst $end
$var wire 8 < bfly_pos_real [7:0] $end
$var wire 8 = bfly_pos_imag [7:0] $end
$var wire 8 > bfly_neg_real [7:0] $end
$var wire 8 ? bfly_neg_imag [7:0] $end
$var reg 8 @ out0_imag [7:0] $end
$var reg 8 A out0_real [7:0] $end
$var reg 8 B out1_imag [7:0] $end
$var reg 8 C out1_real [7:0] $end
$var reg 8 D out2_imag [7:0] $end
$var reg 8 E out2_real [7:0] $end
$var reg 8 F out3_imag [7:0] $end
$var reg 8 G out3_real [7:0] $end
$scope module bfly_stage1_0 $end
$var wire 8 H A_imag [7:0] $end
$var wire 8 I A_real [7:0] $end
$var wire 8 J B_imag [7:0] $end
$var wire 8 K B_real [7:0] $end
$var wire 8 L W_imag [7:0] $end
$var wire 8 M W_real [7:0] $end
$var wire 16 N product_real [15:0] $end
$var wire 16 O product_imag [15:0] $end
$var wire 8 P Pos_real [7:0] $end
$var wire 8 Q Pos_imag [7:0] $end
$var wire 8 R Neg_real [7:0] $end
$var wire 8 S Neg_imag [7:0] $end
$upscope $end
$scope module bfly_stage1_1 $end
$var wire 8 T A_imag [7:0] $end
$var wire 8 U A_real [7:0] $end
$var wire 8 V B_imag [7:0] $end
$var wire 8 W B_real [7:0] $end
$var wire 8 X W_imag [7:0] $end
$var wire 8 Y W_real [7:0] $end
$var wire 16 Z product_real [15:0] $end
$var wire 16 [ product_imag [15:0] $end
$var wire 8 \ Pos_real [7:0] $end
$var wire 8 ] Pos_imag [7:0] $end
$var wire 8 ^ Neg_real [7:0] $end
$var wire 8 _ Neg_imag [7:0] $end
$upscope $end
$scope module bfly_stage2_1 $end
$var wire 8 ` A_imag [7:0] $end
$var wire 8 a A_real [7:0] $end
$var wire 8 b B_imag [7:0] $end
$var wire 8 c B_real [7:0] $end
$var wire 8 d W_imag [7:0] $end
$var wire 8 e W_real [7:0] $end
$var wire 16 f product_real [15:0] $end
$var wire 16 g product_imag [15:0] $end
$var wire 8 h Pos_real [7:0] $end
$var wire 8 i Pos_imag [7:0] $end
$var wire 8 j Neg_real [7:0] $end
$var wire 8 k Neg_imag [7:0] $end
$upscope $end
$upscope $end
$upscope $end
$enddefinitions $end
#0
$dumpvars
b1100100 k
b11101100 j
b11101100 i
b1100100 h
b1110001000000000 g
b1111000000000 f
b0 e
b10000000 d
b111100 c
b111100 b
b101000 a
b101000 `
b111100 _
b111100 ^
b11101100 ]
b11101100 \
b1110110000000000 [
b1110110000000000 Z
b10000000 Y
b0 X
b101000 W
b101000 V
b10100 U
b10100 T
b101000 S
b101000 R
b11101100 Q
b11101100 P
b1111000100000000 O
b1111000100000000 N
b10000000 M
b0 L
b11110 K
b11110 J
b1010 I
b1010 H
bx G
bx F
bx E
bx D
bx C
bx B
bx A
bx @
b1100100 ?
b11101100 >
b11101100 =
b1100100 <
b101000 ;
b101000 :
b11110 9
b11110 8
b10100 7
b10100 6
b1010 5
b1010 4
b1 3
bx 2
bx 1
bx 0
bx /
bx .
bx -
bx ,
bx +
0*
b101000 )
b101000 (
b11110 '
b11110 &
b10100 %
b10100 $
b1010 #
b1010 "
1!
$end
#1000
b0 ,
b0 F
b0 +
b0 G
b0 .
b0 D
b0 -
b0 E
b0 0
b0 B
b0 /
b0 C
b0 2
b0 @
b0 1
b0 A
1*
#2000
0*
#5000
0!
#10000
b1100100 ,
b1100100 F
b11101100 +
b11101100 G
b11101100 0
b11101100 B
b1100100 /
b1100100 C
b11011000 2
b11011000 @
b11011000 1
b11011000 A
1!
#11001
b0 =
b0 i
b0 ?
b0 k
b1 <
b1 h
b1 >
b1 j
b0 ]
b0 f
b0 _
b0 b
b0 \
b0 g
b0 ^
b0 c
b0 Q
b0 S
b0 `
b1 P
b1 R
b1 a
b0 [
b0 (
b0 :
b0 V
b0 Z
b0 )
b0 ;
b0 W
b0 O
b0 &
b0 8
b0 J
b0 N
b0 '
b0 9
b0 K
b0 $
b0 6
b0 T
b0 %
b0 7
b0 U
b0 "
b0 4
b0 H
b1 #
b1 5
b1 I
b10 3
#16001
0!
#21001
b0 ,
b0 F
b1 +
b1 G
b0 0
b0 B
b1 /
b1 C
b1 -
b1 E
b0 2
b0 @
b1 1
b1 A
1!
#22002
b10 <
b10 h
b10 >
b10 j
b11111110 =
b11111110 i
b10 ?
b10 k
b0 P
b10 R
b10 a
b0 \
b1111111100000000 g
b10 ^
b10 c
b1111111110000000 Z
b1 )
b1 ;
b1 W
b1111111110000000 N
b1 '
b1 9
b1 K
b1 %
b1 7
b1 U
b11 3
#27002
0!
#32002
b10 ,
b10 F
b10 +
b10 G
b11111110 0
b11111110 B
b10 /
b10 C
b0 -
b0 E
b0 1
b0 A
1!
#33003
b111100 =
b111100 i
b1110100 ?
b1110100 k
b1100100 <
b1100100 h
b10100 >
b10100 j
b10001000 ]
b1010000000000 f
b101000 _
b101000 b
b101000 \
b11001000000000 g
b10011100 ^
b10011100 c
b1010000 Q
b11011000 S
b11011000 `
b11011000 P
b111100 R
b111100 a
b1101100000000000 [
b1010000 (
b1010000 :
b1010000 V
b10001100000000 Z
b10111010 )
b10111010 ;
b10111010 W
b1111000000000 O
b11000100 &
b11000100 8
b11000100 J
b1110011100000000 N
b110010 '
b110010 9
b110010 K
b11011000 $
b11011000 6
b11011000 T
b11100010 %
b11100010 7
b11100010 U
b10100 "
b10100 4
b10100 H
b1010 #
b1010 5
b1010 I
b100 3
#38003
0!
#43003
b1110100 ,
b1110100 F
b10100 +
b10100 G
b111100 0
b111100 B
b1100100 /
b1100100 C
b11001000 .
b11001000 D
b10110000 -
b10110000 E
b11011000 2
b11011000 @
1!
#44004
b10000101 =
b10000101 i
b10111011 ?
b10111011 k
b101110 <
b101110 h
b11011010 >
b11011010 j
b1100110 ]
b1010100000000 f
b101010 _
b101010 b
b1001101 \
b1111001010000000 g
b11011 ^
b11011 c
b10011100 Q
b10100000 S
b10100000 `
b1110010 P
b100 R
b100 a
b111100000000 [
b11100010 (
b11100010 :
b11100010 V
b110010000000 Z
b11100111 )
b11100111 ;
b11100111 W
b1111111100000000 O
b10 &
b10 8
b10 J
b1101101110000000 N
b1001001 '
b1001001 9
b1001001 K
b1001000 $
b1001000 6
b1001000 T
b110100 %
b110100 7
b110100 U
b10011110 "
b10011110 4
b10011110 H
b10111011 #
b10111011 5
b10111011 I
b101 3
#49004
0!
#54004
b10111011 ,
b10111011 F
b11011010 +
b11011010 G
b10000101 0
b10000101 B
b101110 /
b101110 C
b110110 .
b110110 D
b100101 -
b100101 E
b10 2
b10 @
b10111111 1
b10111111 A
1!
#55004
b11110101 =
b11110101 i
b100111 ?
b100111 k
b11101 <
b11101 h
b10010001 >
b10010001 j
b11010100 ]
b10001100000000 f
b1000110 _
b1000110 b
b1101011 \
b1111001110000000 g
b11001 ^
b11001 c
b11110010 Q
b1110 S
b1110 `
b1100111 P
b11010111 R
b11010111 a
b10001110000000 [
b10111001 (
b10111001 :
b10111001 V
b1101010010000000 Z
b1010111 )
b1010111 ;
b1010111 W
b11100100000000 O
b10001110 &
b10001110 8
b10001110 J
b1110010000000000 N
b111000 '
b111000 9
b111000 K
b10001101 $
b10001101 6
b10001101 T
b11000010 %
b11000010 7
b11000010 U
b10000000 "
b10000000 4
b10000000 H
b10011111 #
b10011111 5
b10011111 I
#59004
0!
#64004
b100111 ,
b100111 F
b10010001 +
b10010001 G
b11110101 0
b11110101 B
b11101 /
b11101 C
b11110 .
b11110 D
b11111100 -
b11111100 E
b11000110 2
b11000110 @
b11010010 1
b11010010 A
1!
#65004
b1100110 =
b1100110 i
b100100 ?
b100100 k
b101001 <
b101001 h
b10010101 >
b10010101 j
b111010 ]
b1110010100000000 f
b11001010 _
b11001010 b
b10101 \
b1000010000000 g
b11011111 ^
b11011111 c
b10110101 Q
b1000101 S
b1000101 `
b1100001 P
b1011111 R
b1011111 a
b1110000000000 [
b11001000 (
b11001000 :
b11001000 V
b1100110110000000 Z
b1100101 )
b1100101 ;
b1100101 W
b1110000000000 O
b11001000 &
b11001000 8
b11001000 J
b10000000 N
b11111111 '
b11111111 9
b11111111 K
b10 $
b10 6
b10 T
b1111010 %
b1111010 7
b1111010 U
b1111101 "
b1111101 4
b1111101 H
b1100000 #
b1100000 5
b1100000 I
#69004
0!
#74004
b100100 ,
b100100 F
b10010101 +
b10010101 G
b1100110 0
b1100110 B
b101001 /
b101001 C
b1111011 .
b1111011 D
b1001100 -
b1001100 E
b11101111 2
b11101111 @
b1110110 1
b1110110 A
1!
#75004
b1000000 =
b1000000 i
b1100110 ?
b1100110 k
b1000010 <
b1000010 h
b11001100 >
b11001100 j
b10000011 ]
b1110110000000 f
b111011 _
b111011 b
b101011 \
b11011010000000 g
b10010011 ^
b10010011 c
b1001001 Q
b11010011 S
b11010011 `
b10010001 P
b111 R
b111 a
b1101001000000000 [
b1011100 (
b1011100 :
b1011100 V
b10011000000000 Z
b10110100 )
b10110100 ;
b10110100 W
b1110110000000 O
b11000101 &
b11000101 8
b11000101 J
b10001010000000 N
b10111011 '
b10111011 9
b10111011 K
b11011111 $
b11011111 6
b11011111 T
b11011111 %
b11011111 7
b11011111 U
b1110 "
b1110 4
b1110 H
b1001100 #
b1001100 5
b1001100 I
#79004
0!
#84004
b1100110 ,
b1100110 F
b11001100 +
b11001100 G
b1000000 0
b1000000 B
b1000010 /
b1000010 C
b11000110 .
b11000110 D
b1100110 -
b1100110 E
b11001100 2
b11001100 @
b10111100 1
b10111100 A
1!
#85004
b10001010 =
b10001010 i
b11000110 ?
b11000110 k
b11101111 <
b11101111 h
b10010101 >
b10010101 j
b100101 ]
b1011010000000 f
b101101 _
b101101 b
b10010000 \
b11000100000000 g
b10011110 ^
b10011110 c
b10000110 Q
b101000 S
b101000 `
b1010100 P
b11000010 R
b11000010 a
b11111000000000 [
b10000100 (
b10000100 :
b10000100 V
b11110010000000 Z
b10000111 )
b10000111 ;
b10000111 W
b1101011110000000 O
b1010001 &
b1010001 8
b1010001 J
b10010010000000 N
b10110111 '
b10110111 9
b10110111 K
b10101001 $
b10101001 6
b10101001 T
b10111 %
b10111 7
b10111 U
b11010111 "
b11010111 4
b11010111 H
b1011 #
b1011 5
b1011 I
#89004
0!
#94004
b11000110 ,
b11000110 F
b10010101 +
b10010101 G
b10001010 0
b10001010 B
b11101111 /
b11101111 C
b1100001 .
b1100001 D
b11000100 -
b11000100 E
b10101011 2
b10101011 @
b11100100 1
b11100100 A
1!
#95004
b10001 =
b10001 i
b1001011 ?
b1001011 k
b10011 <
b10011 h
b10111001 >
b10111001 j
b11001111 ]
b1011010000000 f
b101101 _
b101101 b
b10101001 \
b1111000110000000 g
b11101 ^
b11101 c
b11111100 Q
b101110 S
b101110 `
b10100 P
b11100110 R
b11100110 a
b1110100010000000 [
b101111 (
b101111 :
b101111 V
b10001100000000 Z
b10111010 )
b10111010 ;
b10111010 W
b11001110000000 O
b10011001 &
b10011001 8
b10011001 J
b101110000000 N
b11101001 '
b11101001 9
b11101001 K
b11111110 $
b11111110 6
b11111110 T
b1100011 %
b1100011 7
b1100011 U
b10010101 "
b10010101 4
b10010101 H
b11111101 #
b11111101 5
b11111101 I
#99004
0!
#104004
b1001011 ,
b1001011 F
b10111001 +
b10111001 G
b10001 0
b10001 B
b10011 /
b10011 C
b101101 .
b101101 D
b1101011 -
b1101011 E
b11001011 2
b11001011 @
b10111101 1
b10111101 A
1!
#105004
b10001011 =
b10001011 i
b10000001 ?
b10000001 k
b10000 <
b10000 h
b11010010 >
b11010010 j
b11001111 ]
b111110000000 f
b11111 _
b11111 b
b10101001 \
b1010000000 g
b11111011 ^
b11111011 c
b110110 Q
b10000110 S
b10000110 `
b1000111 P
b11110001 R
b11110001 a
b10110000000000 [
b10101000 (
b10101000 :
b10101000 V
b10101110000000 Z
b10101001 )
b10101001 ;
b10101001 W
b10110000000000 O
b10101000 &
b10101000 8
b10101000 J
b1010110000000 N
b11010101 '
b11010101 9
b11010101 K
b1110111 $
b1110111 6
b1110111 T
b1010010 %
b1010010 7
b1010010 U
b11011110 "
b11011110 4
b11011110 H
b11100 #
b11100 5
b11100 I
#109004
0!
#114004
b10000001 ,
b10000001 F
b11010010 +
b11010010 G
b10001011 0
b10001011 B
b10000 /
b10000 C
b1100111 .
b1100111 D
b10011110 -
b10011110 E
b101 2
b101 @
b11110000 1
b11110000 A
1!
#115004
b11101011 =
b11101011 i
b11101111 ?
b11101111 k
b1000 <
b1000 h
b11000010 >
b11000010 j
b10100011 ]
b1000110000000 f
b100011 _
b100011 b
b11111000 \
b1111111100000000 g
b10 ^
b10 c
b100001 Q
b11101101 S
b11101101 `
b11101 P
b11100101 R
b11100101 a
b1110000000000000 [
b1000000 (
b1000000 :
b1000000 V
b1111110110000000 Z
b101 )
b101 ;
b101 W
b1100110100000000 O
b1100110 &
b1100110 8
b1100110 J
b1100111000000000 N
b1100100 '
b1100100 9
b1100100 K
b11100011 $
b11100011 6
b11100011 T
b11111101 %
b11111101 7
b11111101 U
b10000111 "
b10000111 4
b10000111 H
b10000001 #
b10000001 5
b10000001 I
#119004
0!
#124004
b11101111 ,
b11101111 F
b11000010 +
b11000010 G
b11101011 0
b11101011 B
b1000 /
b1000 C
b1111110 .
b1111110 D
b100101 -
b100101 E
b11000100 2
b11000100 @
b10101 1
b10101 A
1!
#125004
b11100100 =
b11100100 i
b11000010 ?
b11000010 k
b10000 <
b10000 h
b10000100 >
b10000100 j
b1011000 ]
b1110001100000000 f
b11000110 _
b11000110 b
b10001101 \
b100010000000 g
b11101111 ^
b11101111 c
b1111111 Q
b11010011 S
b11010011 `
b1110 P
b1001010 R
b1001010 a
b1110010010000000 [
b110111 (
b110111 :
b110111 V
b10011110000000 Z
b10110001 )
b10110001 ;
b10110001 W
b1110101100000000 O
b101010 &
b101010 8
b101010 J
b11000100000000 N
b10011110 '
b10011110 9
b10011110 K
b10001111 $
b10001111 6
b10001111 T
b111110 %
b111110 7
b111110 U
b10101001 "
b10101001 4
b10101001 H
b10101100 #
b10101100 5
b10101100 I
#129004
0!
#134004
b11000010 ,
b11000010 F
b10000100 +
b10000100 G
b11100100 0
b11100100 B
b10000 /
b10000 C
b100111 .
b100111 D
b10000001 -
b10000001 E
b11010111 2
b11010111 @
b10011011 1
b10011011 A
1!
#135004
b10001000 =
b10001000 i
b11011100 ?
b11011100 k
b10010110 <
b10010110 h
b11100110 >
b11100110 j
b1110 ]
b10110000000000 f
b1011000 _
b1011000 b
b1101110 \
b10101100000000 g
b10101010 ^
b10101010 c
b11001100 Q
b110010 S
b110010 `
b1111010 P
b111110 R
b111110 a
b1110110110000000 [
b100101 (
b100101 :
b100101 V
b1111000100000000 Z
b11110 )
b11110 ;
b11110 W
b1110011010000000 O
b110011 &
b110011 8
b110011 J
b1100111100000000 N
b1100010 '
b1100010 9
b1100010 K
b110011 $
b110011 6
b110011 T
b10001100 %
b10001100 7
b10001100 U
b11111111 "
b11111111 4
b11111111 H
b11011100 #
b11011100 5
b11011100 I
#139004
0!
#144004
b11011100 ,
b11011100 F
b11100110 +
b11100110 G
b10001000 0
b10001000 B
b10010110 /
b10010110 C
b10111110 .
b10111110 D
b1100 -
b1100 E
b11011010 2
b11011010 @
b11101000 1
b11101000 A
1!
#145004
b11010110 =
b11010110 i
b11111000 ?
b11111000 k
b11100000 <
b11100000 h
b11101000 >
b11101000 j
b10001000 ]
b11111000000000 f
b1111100 _
b1111100 b
b11001011 \
b11011110000000 g
b10010001 ^
b10010001 c
b1010001 Q
b1100111 S
b1100111 `
b10000110 P
b1100100 R
b1100100 a
b1100001100000000 [
b1111010 (
b1111010 :
b1111010 V
b1100111010000000 Z
b1100011 )
b1100011 ;
b1100011 W
b1111101010000000 O
b1011 &
b1011 8
b1011 J
b100010000000 N
b11101111 '
b11101111 9
b11101111 K
b10 $
b10 6
b10 T
b101110 %
b101110 7
b101110 U
b1011100 "
b1011100 4
b1011100 H
b1110101 #
b1110101 5
b1110101 I
#149004
0!
#154004
b11111000 ,
b11111000 F
b11101000 +
b11101000 G
b11010110 0
b11010110 B
b11100000 /
b11100000 C
b11001001 .
b11001001 D
b10111011 -
b10111011 E
b11011001 2
b11011001 @
b1010001 1
b1010001 A
1!
#155004
b101 =
b101 i
b10000101 ?
b10000101 k
b1100 <
b1100 h
b0 >
b0 j
b11101010 ]
b1100000000 f
b110 _
b110 b
b10111010 \
b10000000000000 g
b11000000 ^
b11000000 c
b111011 Q
b11000101 S
b11000101 `
b11101010 P
b110 R
b110 a
b1111100100000000 [
b1110 (
b1110 :
b1110 V
b1111111010000000 Z
b11 )
b11 ;
b11 W
b1101110110000000 O
b1000101 &
b1000101 8
b1000101 J
b1111100100000000 N
b1110 '
b1110 9
b1110 K
b11111000 $
b11111000 6
b11111000 T
b10111101 %
b10111101 7
b10111101 U
b10000000 "
b10000000 4
b10000000 H
b11111000 #
b11111000 5
b11111000 I
#159004
0!
#164004
b10000101 ,
b10000101 F
b0 +
b0 G
b101 0
b101 B
b1100 /
b1100 C
b1010001 .
b1010001 D
b110000 -
b110000 E
b100101 2
b100101 @
b10100100 1
b10100100 A
1!
#165004
b10111010 =
b10111010 i
b11100110 ?
b11100110 k
b10010 <
b10010 h
b1110000 >
b1110000 j
b11 ]
b10100010000000 f
b1010001 _
b1010001 b
b10110 \
b1111010100000000 g
b10110 ^
b10110 c
b11110110 Q
b11010000 S
b11010000 `
b11100011 P
b11000001 R
b11000001 a
b10110010000000 [
b10100111 (
b10100111 :
b10100111 V
b0 Z
b0 )
b0 ;
b0 W
b1100100110000000 O
b1101101 &
b1101101 8
b1101101 J
b1100100010000000 N
b1101111 '
b1101111 9
b1101111 K
b10101010 $
b10101010 6
b10101010 T
b10110 %
b10110 7
b10110 U
b1100011 "
b1100011 4
b1100011 H
b1010010 #
b1010010 5
b1010010 I
#169004
0!
#174004
b11100110 ,
b11100110 F
b1110000 +
b1110000 G
b10111010 0
b10111010 B
b10010 /
b10010 C
b11110011 .
b11110011 D
b11001101 -
b11001101 E
b11111001 2
b11111001 @
b11111001 1
b11111001 A
1!
#175004
b1100010 =
b1100010 i
b10100100 ?
b10100100 k
b110100 <
b110100 h
b10011010 >
b10011010 j
b110101 ]
b1110011010000000 f
b11001101 _
b11001101 b
b110111 \
b10111110000000 g
b10100001 ^
b10100001 c
b11100101 Q
b11 S
b11 `
b1010011 P
b1100111 R
b1100111 a
b1101101000000000 [
b1001100 (
b1001100 :
b1001100 V
b1110010110000000 Z
b110101 )
b110101 ;
b110101 W
b11100010000000 O
b10001111 &
b10001111 8
b10001111 J
b1111101100000000 N
b1010 '
b1010 9
b1010 K
b10000001 $
b10000001 6
b10000001 T
b1101100 %
b1101100 7
b1101100 U
b1110100 "
b1110100 4
b1110100 H
b1011101 #
b1011101 5
b1011101 I
#179004
0!
#184004
b10100100 ,
b10100100 F
b10011010 +
b10011010 G
b1100010 0
b1100010 B
b110100 /
b110100 C
b10110000 .
b10110000 D
b11100 -
b11100 E
b11010 2
b11010 @
b10001010 1
b10001010 A
1!
#185004
b11101001 =
b11101001 i
b1101 ?
b1101 k
b10101100 <
b10101100 h
b110 >
b110 j
b1111111 ]
b10100110000000 f
b1010011 _
b1010011 b
b1111110 \
b11011100000000 g
b10010010 ^
b10010010 c
b11011001 Q
b1111011 S
b1111011 `
b1110111 P
b1011001 R
b1011001 a
b1100101100000000 [
b1101010 (
b1101010 :
b1101010 V
b1111101100000000 Z
b1010 )
b1010 ;
b1010 W
b1101011110000000 O
b1010001 &
b1010001 8
b1010001 J
b1100011110000000 N
b1110001 '
b1110001 9
b1110001 K
b11101001 $
b11101001 6
b11101001 T
b10001000 %
b10001000 7
b10001000 U
b101010 "
b101010 4
b101010 H
b11101000 #
b11101000 5
b11101000 I
#189004
0!
#194004
b1101 ,
b1101 F
b110 +
b110 G
b11101001 0
b11101001 B
b10101100 /
b10101100 C
b1011010 .
b1011010 D
b11111001 -
b11111001 E
b1011000 2
b1011000 @
b11110101 1
b11110101 A
1!
#195004
b11000001 =
b11000001 i
b11000001 ?
b11000001 k
b1001011 <
b1001011 h
b100101 >
b100101 j
b11100011 ]
b1100100110000000 f
b10010011 _
b10010011 b
b1110110 \
b0 g
b0 ^
b0 c
b111111 Q
b11000001 S
b11000001 `
b1011010 P
b10111000 R
b10111000 a
b1101010000000000 [
b1011000 (
b1011000 :
b1011000 V
b1101110110000000 Z
b1000101 )
b1000101 ;
b1000101 W
b1101111110000000 O
b1000001 &
b1000001 8
b1000001 J
b1110100010000000 N
b101111 '
b101111 9
b101111 K
b111011 $
b111011 6
b111011 T
b10111011 %
b10111011 7
b10111011 U
b10000000 "
b10000000 4
b10000000 H
b10001001 #
b10001001 5
b10001001 I
#199004
0!
#204004
b11000001 ,
b11000001 F
b100101 +
b100101 G
b11000001 0
b11000001 B
b1001011 /
b1001011 C
b1011100 .
b1011100 D
b11100100 -
b11100100 E
b100010 2
b100010 @
b11010000 1
b11010000 A
1!
#205004
b10101010 =
b10101010 i
b11000110 ?
b11000110 k
b1011001 <
b1011001 h
b10100011 >
b10100011 j
b11011111 ]
b1110110110000000 f
b11011011 _
b11011011 b
b1101010 \
b11100100000000 g
b10001110 ^
b10001110 c
b1111110 Q
b111000 S
b111000 `
b10110010 P
b1111110 R
b1111110 a
b100000000 [
b11111110 (
b11111110 :
b11111110 V
b1111011100000000 Z
b10010 )
b10010 ;
b10010 W
b1000110000000 O
b11011101 &
b11011101 8
b11011101 J
b1100110100000000 N
b1100110 '
b1100110 9
b1100110 K
b11011101 $
b11011101 6
b11011101 T
b1111100 %
b1111100 7
b1111100 U
b1011011 "
b1011011 4
b1011011 H
b11000 #
b11000 5
b11000 I
#209004
0!
#214004
b11000110 ,
b11000110 F
b10100011 +
b10100011 G
b10101010 0
b10101010 B
b1011001 /
b1011001 C
b10011111 .
b10011111 D
b1001000 -
b1001000 E
b1011101 2
b1011101 @
b11100 1
b11100 A
1!
#215004
b10000000 =
b10000000 i
b1100010 ?
b1100010 k
b11000010 <
b11000010 h
b100100 >
b100100 j
b11101001 ]
b1110011110000000 f
b11001111 _
b11001111 b
b1001011 \
b11110000000 g
b11110001 ^
b11110001 c
b11010111 Q
b1110001 S
b1110001 `
b10001011 P
b11110011 R
b11110011 a
b1100011010000000 [
b1110011 (
b1110011 :
b1110011 V
b1101011010000000 Z
b1010011 )
b1010011 ;
b1010011 W
b1100110000000 O
b11001101 &
b11001101 8
b11001101 J
b1110011000000000 N
b110100 '
b110100 9
b110100 K
b1011100 $
b1011100 6
b1011100 T
b10011110 %
b10011110 7
b10011110 U
b10100100 "
b10100100 4
b10100100 H
b10111111 #
b10111111 5
b10111111 I
#219004
0!
#224004
b1100010 ,
b1100010 F
b100100 +
b100100 G
b10000000 0
b10000000 B
b11000010 /
b11000010 C
b11101110 .
b11101110 D
b1000000 -
b1000000 E
b11000000 2
b11000000 @
b11010110 1
b11010110 A
1!
#225004
b1001110 =
b1001110 i
b11101010 ?
b11101010 k
b1111001 <
b1111001 h
b1100001 >
b1100001 j
b111000 ]
b1100011000000000 f
b10001100 _
b10001100 b
b1110000 \
b1100100000000 g
b11001110 ^
b11001110 c
b0 Q
b11100 S
b11100 `
b10011111 P
b11101101 R
b11101101 a
b10101100000000 [
b10101010 (
b10101010 :
b10101010 V
b10100010000000 Z
b10101111 )
b10101111 ;
b10101111 W
b11100100000000 O
b10001110 &
b10001110 8
b10001110 J
b1110110010000000 N
b100111 '
b100111 9
b100111 K
b11100010 $
b11100010 6
b11100010 T
b11111 %
b11111 7
b11111 U
b10001110 "
b10001110 4
b10001110 H
b11000110 #
b11000110 5
b11000110 I
#229004
0!
#234004
b11101010 ,
b11101010 F
b1100001 +
b1100001 G
b1001110 0
b1001110 B
b1111001 /
b1111001 C
b11001000 .
b11001000 D
b101111 -
b101111 E
b111000 2
b111000 @
b1111 1
b1111 A
1!
#235004
b11110001 =
b11110001 i
b10100111 ?
b10100111 k
b11101101 <
b11101101 h
b1001001 >
b1001001 j
b10010110 ]
b10100100000000 f
b1010010 _
b1010010 b
b1011001 \
b1101001010000000 g
b1011011 ^
b1011011 c
b11110110 Q
b1001100 S
b1001100 `
b1011 P
b10011011 R
b10011011 a
b1101000100000000 [
b1011110 (
b1011110 :
b1011110 V
b1111111110000000 Z
b1 )
b1 ;
b1 W
b10101010000000 O
b10101011 &
b10101011 8
b10101011 J
b1110000000000 N
b11001000 '
b11001000 9
b11001000 K
b11110100 $
b11110100 6
b11110100 T
b1011010 %
b1011010 7
b1011010 U
b10100001 "
b10100001 4
b10100001 H
b11010011 #
b11010011 5
b11010011 I
#239004
0!
#244004
b10100111 ,
b10100111 F
b1001001 +
b1001001 G
b11110001 0
b11110001 B
b11101101 /
b11101101 C
b1100000 .
b1100000 D
b10110010 -
b10110010 E
b10001100 2
b10001100 @
b1100100 1
b1100100 A
1!
