test/memory_ctrl/wave/memory_ctrl_tb_20250808_12:02:21.vcd
$date
	Fri Aug  8 12:02:26 2025
$end
$version
	Icarus Verilog
$end
$timescale
	1ps
$end
$scope module memory_ctrl_tb $end
$var wire 2 ! addr [1:0] $end
$var wire 1 " clk $end
$var wire 8 # data_in [7:0] $end
$var wire 1 $ ena $end
$var wire 1 % load_pulse $end
$var wire 1 & rst $end
$var wire 8 ' real3_out [7:0] $end
$var wire 8 ( real2_out [7:0] $end
$var wire 8 ) real1_out [7:0] $end
$var wire 8 * real0_out [7:0] $end
$var wire 8 + imag3_out [7:0] $end
$var wire 8 , imag2_out [7:0] $end
$var wire 8 - imag1_out [7:0] $end
$var wire 8 . imag0_out [7:0] $end
$var reg 8 / current_test_id [7:0] $end
$scope module dut $end
$var wire 2 0 addr [1:0] $end
$var wire 1 " clk $end
$var wire 8 1 data_in [7:0] $end
$var wire 1 $ ena $end
$var wire 8 2 imag0_out [7:0] $end
$var wire 8 3 imag1_out [7:0] $end
$var wire 8 4 imag2_out [7:0] $end
$var wire 8 5 imag3_out [7:0] $end
$var wire 1 % load_pulse $end
$var wire 8 6 real0_out [7:0] $end
$var wire 8 7 real1_out [7:0] $end
$var wire 8 8 real2_out [7:0] $end
$var wire 8 9 real3_out [7:0] $end
$var wire 1 & rst $end
$var integer 32 : i [31:0] $end
$upscope $end
$upscope $end
$enddefinitions $end
#0
$dumpvars
b100 :
b0 9
b0 8
b0 7
b0 6
b0 5
b0 4
b0 3
b0 2
b10010 1
b1 0
b1 /
b0 .
b0 -
b0 ,
b0 +
b0 *
b0 )
b0 (
b0 '
1&
0%
1$
b10010 #
1"
b1 !
$end
#5000
0&
0"
#10000
1"
#10001
1%
#15001
0"
#20001
b100 :
1&
0%
b0 -
b0 3
b0 )
b0 7
1"
#25001
0&
0"
#30001
b10010110 #
b10010110 1
b10 !
b10 0
1%
b10 /
1"
#35001
0"
#40001
0%
b1100000 ,
b1100000 4
b10010000 (
b10010000 8
1"
#41002
b10010 #
b10010 1
b1 !
b1 0
1%
b1 /
#46002
0"
#51002
b0 ,
b0 4
b0 (
b0 8
b100 :
1&
0%
b0 -
b0 3
b0 )
b0 7
1"
#56002
0&
0"
#61002
b11111111 #
b11111111 1
b11 !
b11 0
1%
0$
b11 /
1"
#66002
0"
#71002
0%
1"
#72002
1$
#76002
0"
#81002
1"
#82003
b10010 #
b10010 1
b1 !
b1 0
1%
b1 /
#87003
0"
#92003
b100 :
1&
0%
b0 -
b0 3
b0 )
b0 7
1"
#97003
0&
0"
#102003
1%
b101000 #
b101000 1
b100 /
1"
#107003
0"
#112003
0%
b10000000 -
b10000000 3
b100000 )
b100000 7
1"
#113003
b11000011 #
b11000011 1
b10 !
b10 0
#117003
0"
#122003
1"
#123003
1%
b11101110 #
b11101110 1
#127003
0"
#132003
0%
b11100000 ,
b11100000 4
b11100000 (
b11100000 8
1"
#133003
b10101001 #
b10101001 1
b1 !
b1 0
#137003
0"
#142003
1"
#143003
1%
b1001110 #
b1001110 1
b0 !
b0 0
#147003
0"
#152003
0%
b11100000 .
b11100000 2
b1000000 *
b1000000 6
1"
#153003
1%
b10001110 #
b10001110 1
b11 !
b11 0
#157003
0"
#162003
0%
b11100000 +
b11100000 5
b10000000 '
b10000000 9
1"
#163003
1%
b1110100 #
b1110100 1
b1 !
b1 0
#167003
0"
#172003
0%
b1000000 -
b1000000 3
b1110000 )
b1110000 7
1"
#173003
b11000011 #
b11000011 1
b0 !
b0 0
#177003
0"
#182003
1"
#183003
1%
b1101111 #
b1101111 1
b10 !
b10 0
#187003
0"
#192003
0%
b11110000 ,
b11110000 4
b1100000 (
b1100000 8
1"
#193003
1%
b1011100 #
b1011100 1
b11 !
b11 0
#197003
0"
#202003
0%
b11000000 +
b11000000 5
b1010000 '
b1010000 9
1"
#203003
b10000101 #
b10000101 1
b0 !
b0 0
#207003
0"
#212003
1"
#213003
1%
b1111111 #
b1111111 1
b11 !
b11 0
#217003
0"
#222003
0%
b11110000 +
b11110000 5
b1110000 '
b1110000 9
1"
#223003
b1110111 #
b1110111 1
b0 !
b0 0
#227003
0"
#232003
1"
#233003
1%
b101110 #
b101110 1
b11 !
b11 0
#237003
0"
#242003
0%
b11100000 +
b11100000 5
b100000 '
b100000 9
1"
#243003
1%
b10010 #
b10010 1
b10 !
b10 0
#247003
0"
#252003
0%
b100000 ,
b100000 4
b10000 (
b10000 8
1"
#253003
1%
b10011101 #
b10011101 1
b0 !
b0 0
#257003
0"
#262003
0%
b11010000 .
b11010000 2
b10010000 *
b10010000 6
1"
#263003
1%
b11100000 #
b11100000 1
b1 !
b1 0
#267003
0"
#272003
0%
b0 -
b0 3
b11100000 )
b11100000 7
1"
#273003
1%
b1111110 #
b1111110 1
#277003
0"
#282003
0%
b11100000 -
b11100000 3
b1110000 )
b1110000 7
1"
#283003
b1001111 #
b1001111 1
b10 !
b10 0
#287003
0"
#292003
1"
#293003
b10110110 #
b10110110 1
b1 !
b1 0
#297003
0"
#302003
1"
#303003
1%
b11010110 #
b11010110 1
b11 !
b11 0
#307003
0"
#312003
0%
b1100000 +
b1100000 5
b11010000 '
b11010000 9
1"
#313003
1%
b101011 #
b101011 1
b1 !
b1 0
#317003
0"
#322003
0%
b10110000 -
b10110000 3
b100000 )
b100000 7
1"
#323003
b1111011 #
b1111011 1
#327003
0"
#332003
1"
#333003
1%
b1001 #
b1001 1
b0 !
b0 0
#337003
0"
#342003
0%
b10010000 .
b10010000 2
b0 *
b0 6
1"
#343003
1%
b10110000 #
b10110000 1
b10 !
b10 0
#347003
0"
#352003
0%
b0 ,
b0 4
b10110000 (
b10110000 8
1"
#353003
1%
b11010001 #
b11010001 1
#357003
0"
#362003
0%
b10000 ,
b10000 4
b11010000 (
b11010000 8
1"
#363003
b111011 #
b111011 1
#367003
0"
#372003
1"
#373003
1%
b1000001 #
b1000001 1
b0 !
b0 0
#377003
0"
#382003
0%
b10000 .
b10000 2
b1000000 *
b1000000 6
1"
#383003
1%
b0 #
b0 1
#387003
0"
#392003
0%
b0 .
b0 2
b0 *
b0 6
1"
#393003
b1010101 #
b1010101 1
b11 !
b11 0
#397003
0"
#402003
1"
#403003
1%
b100 #
b100 1
#407003
0"
#412003
0%
b1000000 +
b1000000 5
b0 '
b0 9
1"
#413003
b1010 #
b1010 1
b10 !
b10 0
#417003
0"
#422003
1"
#423003
b10111101 #
b10111101 1
b1 !
b1 0
#427003
0"
#432003
1"
#433003
1%
b11110100 #
b11110100 1
b10 !
b10 0
#437003
0"
#442003
0%
b1000000 ,
b1000000 4
b11110000 (
b11110000 8
1"
#443003
1%
b1111110 #
b1111110 1
#447003
0"
#452003
0%
b11100000 ,
b11100000 4
b1110000 (
b1110000 8
1"
#453003
b1010010 #
b1010010 1
b0 !
b0 0
#457003
0"
#462003
1"
#463003
1%
b10110010 #
b10110010 1
b1 !
b1 0
#467003
0"
#472003
0%
b100000 -
b100000 3
b10110000 )
b10110000 7
1"
#473003
b11100 #
b11100 1
b11 !
b11 0
#477003
0"
#482003
1"
#483003
b1000011 #
b1000011 1
b0 !
b0 0
#487003
0"
#492003
1"
#493003
1%
b10110111 #
b10110111 1
#497003
0"
#502003
0%
b1110000 .
b1110000 2
b10110000 *
b10110000 6
1"
#503003
b1100110 #
b1100110 1
b10 !
b10 0
#507003
0"
#512003
1"
#513003
1%
b11001100 #
b11001100 1
b0 !
b0 0
#517003
0"
#522003
0%
b11000000 .
b11000000 2
b11000000 *
b11000000 6
1"
#523003
1%
b11100 #
b11100 1
#527003
0"
#532003
0%
b10000 *
b10000 6
1"
#533003
b10000 #
b10000 1
b1 !
b1 0
#537003
0"
#542003
1"
#543003
1%
b110111 #
b110111 1
#547003
0"
#552003
0%
b1110000 -
b1110000 3
b110000 )
b110000 7
1"
#553003
1%
b1101111 #
b1101111 1
#557003
0"
#562003
0%
b11110000 -
b11110000 3
b1100000 )
b1100000 7
1"
#563003
b1 #
b1 1
b0 !
b0 0
#567003
0"
#572003
1"
#573003
b11101011 #
b11101011 1
b11 !
b11 0
#577003
0"
#582003
1"
#583003
1%
b11001110 #
b11001110 1
#587003
0"
#592003
0%
b11100000 +
b11100000 5
b11000000 '
b11000000 9
1"
#593003
b11010 #
b11010 1
b1 !
b1 0
